opn/ue/bsp/date/2018/fifo/30/src NOT WORKING/tb_blockcode.vcd
$date
  Mon Nov 26 11:27:54 2018
$end
$version
  GHDL v0
$end
$timescale
  1 fs
$end
$var reg 1 ! rst $end
$var reg 1 " clk $end
$var reg 1 # data_valid $end
$var reg 5 $ data[0:4] $end
$var reg 1 % sink_ready $end
$var reg 1 & code_valid $end
$var reg 8 ' code[0:7] $end
$var reg 8 ( code_expected[0:7] $end
$var reg 1 ) code_valid_expected $end
$var reg 1 * simend $end
$scope module uut $end
$upscope $end
$enddefinitions $end
#0
U!
0"
U#
bUUUUU $
U%
U&
bUUUUUUUU '
bUUUUUUUU (
U)
0*
#5000000
1!
0%
#10000000
1"
#20000000
0"
#25000000
0!
1#
b00000 $
#30000000
1"
#40000000
0"
#45000000
b00001 $
#50000000
1"
#60000000
0"
#65000000
b00010 $
#70000000
1"
#80000000
0"
#85000000
b00011 $
#90000000
1"
#100000000
0"
#105000000
0#
1%
#110000000
1"
#120000000
0"
#125000000
#130000000
1"
#140000000
0"
#145000000
#150000000
1"
#160000000
0"
#165000000
1*
